[gd_scene load_steps=4 format=2]

[ext_resource path="res://actors/player/Attacks/AreaArc.gd" type="Script" id=1]
[ext_resource path="res://actors/player/Attacks/New Piskel (2).png" type="Texture" id=2]



[sub_resource type="CapsuleShape2D" id=1]

custom_solver_bias = 0.0
radius = 3.298
height = 19.6771

[node name="AreaArc" type="Area2D"]

position = Vector2( 0.28479, -0.711979 )
input_pickable = true
gravity_vec = Vector2( 0, 1 )
gravity = 98.0
linear_damp = 0.1
angular_damp = 1.0
audio_bus_override = false
audio_bus_name = "Master"
script = ExtResource( 1 )
DAMAGE = 3

[node name="Sprite" type="Sprite" parent="." index="0"]

texture = ExtResource( 2 )

[node name="CollisionShape2D" type="CollisionShape2D" parent="." index="1"]

position = Vector2( -0.85437, 1.42396 )
rotation = 1.5708
shape = SubResource( 1 )
_sections_unfolded = [ "Transform" ]
__meta__ = {
"_edit_group_": true
}

[node name="VisibilityNotifier2D" type="VisibilityNotifier2D" parent="." index="2"]

rect = Rect2( -10, -10, 20, 20 )

[connection signal="body_entered" from="." to="." method="_on_AreaArc_body_entered"]

[connection signal="screen_exited" from="VisibilityNotifier2D" to="." method="_on_VisibilityNotifier2D_screen_exited"]


