[gd_scene load_steps=12 format=2]

[ext_resource path="res://utilities/HUD.tscn" type="PackedScene" id=1]
[ext_resource path="res://utilities/Start.tscn" type="PackedScene" id=2]
[ext_resource path="res://actors/player/Player.tscn" type="PackedScene" id=3]
[ext_resource path="res://tiles/TileMap.tscn" type="PackedScene" id=4]
[ext_resource path="res://utilities/LeftBottom.tscn" type="PackedScene" id=5]
[ext_resource path="res://utilities/RightUpper.tscn" type="PackedScene" id=6]
[ext_resource path="res://objects/Spikes/SpikeCeiling.tscn" type="PackedScene" id=7]
[ext_resource path="res://objects/Spikes/SpikeFloor.tscn" type="PackedScene" id=8]
[ext_resource path="res://objects/Spikes/SpikeLWall.tscn" type="PackedScene" id=9]
[ext_resource path="res://objects/Spikes/SpikeRWall.tscn" type="PackedScene" id=10]
[ext_resource path="res://utilities/Transition.tscn" type="PackedScene" id=11]

[node name="World2" type="Node"]

[node name="HUD" parent="." index="0" instance=ExtResource( 1 )]

[node name="Start" parent="." index="1" instance=ExtResource( 2 )]

position = Vector2( 96, 352 )

[node name="Player" parent="." index="2" instance=ExtResource( 3 )]

position = Vector2( 93.4551, 339.151 )

[node name="TileMap" parent="." index="3" instance=ExtResource( 4 )]

tile_data = PoolIntArray( -1572871, 0, 1, -1572870, 0, 65536, -1572869, 0, 65536, -1572868, 0, 65536, -1572867, 0, 65536, -1572866, 0, 65536, -1572865, 0, 65536, -1638400, 0, 65536, -1638399, 0, 65536, -1638398, 0, 65536, -1638397, 0, 65536, -1638396, 0, 65536, -1638395, 0, 65536, -1638394, 0, 65536, -1638393, 0, 65536, -1638392, 0, 65536, -1638391, 0, 65536, -1638390, 0, 65536, -1638389, 0, 65536, -1638388, 0, 65536, -1638387, 0, 65536, -1638386, 0, 65536, -1638385, 0, 65536, -1638384, 0, 65536, -1638383, 0, 65536, -1638382, 0, 65536, -1638381, 0, 65536, -1638380, 0, 65536, -1638379, 0, 65536, -1638378, 0, 65536, -1638377, 0, 65536, -1638376, 0, 65536, -1638375, 0, 65536, -1638374, 0, 65536, -1638373, 0, 65536, -1638372, 0, 2, -1638362, 0, 196608, -1638361, 0, 10, -1638360, 0, 65536, -1638359, 0, 65536, -1638358, 0, 65536, -1638357, 0, 65536, -1638356, 0, 65536, -1638355, 0, 65536, -1638354, 0, 65536, -1638353, 0, 65536, -1638352, 0, 65536, -1638351, 0, 65536, -1638350, 0, 65536, -1638349, 0, 65536, -1638348, 0, 65536, -1638347, 0, 65536, -1638346, 0, 65536, -1638345, 0, 65536, -1638344, 0, 65536, -1638343, 0, 65536, -1638342, 0, 65536, -1638341, 0, 65536, -1638340, 0, 65536, -1638339, 0, 65536, -1638338, 0, 65536, -1638337, 0, 65536, -1638336, 0, 65536, -1638335, 0, 65536, -1638334, 0, 65536, -1638333, 0, 65536, -1638332, 0, 65536, -1638331, 0, 65536, -1638330, 0, 65536, -1638329, 0, 65536, -1638328, 0, 65536, -1638327, 0, 65536, -1638326, 0, 65536, -1638325, 0, 65536, -1638324, 0, 65536, -1638323, 0, 65536, -1638322, 0, 65536, -1638321, 0, 2, -1507335, 0, 131073, -1507334, 0, 196619, -1507333, 0, 196619, -1507332, 0, 196619, -1507331, 0, 196619, -1507330, 0, 196619, -1507329, 0, 196619, -1572864, 0, 196619, -1572863, 0, 196619, -1572862, 0, 196619, -1572861, 0, 196619, -1572860, 0, 196619, -1572859, 0, 196619, -1572858, 0, 196619, -1572857, 0, 196619, -1572856, 0, 196619, -1572855, 0, 196619, -1572854, 0, 196619, -1572853, 0, 196619, -1572852, 0, 196619, -1572851, 0, 196619, -1572850, 0, 196619, -1572849, 0, 196619, -1572848, 0, 196619, -1572847, 0, 196619, -1572846, 0, 196619, -1572845, 0, 196619, -1572844, 0, 196619, -1572843, 0, 196619, -1572842, 0, 196619, -1572841, 0, 196619, -1572840, 0, 196619, -1572839, 0, 196619, -1572838, 0, 196619, -1572837, 0, 196619, -1572836, 0, 131074, -1572825, 0, 65537, -1572824, 0, 4, -1572823, 0, 196619, -1572822, 0, 196619, -1572821, 0, 196619, -1572820, 0, 196619, -1572819, 0, 196619, -1572818, 0, 196619, -1572817, 0, 196619, -1572816, 0, 196619, -1572815, 0, 196619, -1572814, 0, 196619, -1572813, 0, 196619, -1572812, 0, 196619, -1572811, 0, 196619, -1572810, 0, 196619, -1572809, 0, 196619, -1572808, 0, 196619, -1572807, 0, 196619, -1572806, 0, 196619, -1572805, 0, 196619, -1572804, 0, 196619, -1572803, 0, 196619, -1572802, 0, 196619, -1572801, 0, 196619, -1572800, 0, 196619, -1572799, 0, 196619, -1572798, 0, 196619, -1572797, 0, 196619, -1572796, 0, 196619, -1572795, 0, 196619, -1572794, 0, 196619, -1572793, 0, 196619, -1572792, 0, 196619, -1572791, 0, 196619, -1572790, 0, 196619, -1572789, 0, 196619, -1572788, 0, 196619, -1572787, 0, 196619, -1572786, 0, 196619, -1572785, 0, 131074, -1441799, 0, 131073, -1441798, 0, 196619, -1441797, 0, 196619, -1441796, 0, 196619, -1441795, 0, 196619, -1441794, 0, 196619, -1441793, 0, 196619, -1507328, 0, 196619, -1507327, 0, 196619, -1507326, 0, 196619, -1507325, 0, 196619, -1507324, 0, 196619, -1507323, 0, 196619, -1507322, 0, 196619, -1507321, 0, 196619, -1507320, 0, 196619, -1507319, 0, 196619, -1507318, 0, 196619, -1507317, 0, 196619, -1507316, 0, 196619, -1507315, 0, 196619, -1507314, 0, 196619, -1507313, 0, 196619, -1507312, 0, 196619, -1507311, 0, 196619, -1507310, 0, 196619, -1507309, 0, 196619, -1507308, 0, 196619, -1507307, 0, 196619, -1507306, 0, 196619, -1507305, 0, 196619, -1507304, 0, 196619, -1507303, 0, 196619, -1507302, 0, 196619, -1507301, 0, 196619, -1507300, 0, 131074, -1507288, 0, 65537, -1507287, 0, 131072, -1507286, 0, 131072, -1507285, 0, 4, -1507284, 0, 196619, -1507283, 0, 196619, -1507282, 0, 196619, -1507281, 0, 196619, -1507280, 0, 196619, -1507279, 0, 196619, -1507278, 0, 196619, -1507277, 0, 196619, -1507276, 0, 196619, -1507275, 0, 196619, -1507274, 0, 196619, -1507273, 0, 196619, -1507272, 0, 196619, -1507271, 0, 196619, -1507270, 0, 196619, -1507269, 0, 196619, -1507268, 0, 196619, -1507267, 0, 196619, -1507266, 0, 196619, -1507265, 0, 196619, -1507264, 0, 196619, -1507263, 0, 196619, -1507262, 0, 196619, -1507261, 0, 196619, -1507260, 0, 196619, -1507259, 0, 196619, -1507258, 0, 196619, -1507257, 0, 196619, -1507256, 0, 196619, -1507255, 0, 196619, -1507254, 0, 196619, -1507253, 0, 196619, -1507252, 0, 196619, -1507251, 0, 196619, -1507250, 0, 196619, -1507249, 0, 131074, -1376263, 0, 131073, -1376262, 0, 196619, -1376261, 0, 196619, -1376260, 0, 196619, -1376259, 0, 196619, -1376258, 0, 196619, -1376257, 0, 196619, -1441792, 0, 196619, -1441791, 0, 196619, -1441790, 0, 196619, -1441789, 0, 196619, -1441788, 0, 196619, -1441787, 0, 196619, -1441786, 0, 196619, -1441785, 0, 196619, -1441784, 0, 196619, -1441783, 0, 196619, -1441782, 0, 196619, -1441781, 0, 196619, -1441780, 0, 196619, -1441779, 0, 196619, -1441778, 0, 196619, -1441777, 0, 196619, -1441776, 0, 196619, -1441775, 0, 196619, -1441774, 0, 196619, -1441773, 0, 196619, -1441772, 0, 196619, -1441771, 0, 196619, -1441770, 0, 196619, -1441769, 0, 196619, -1441768, 0, 196619, -1441767, 0, 196619, -1441766, 0, 196619, -1441765, 0, 196619, -1441764, 0, 131074, -1441749, 0, 65537, -1441748, 0, 131072, -1441747, 0, 131072, -1441746, 0, 196618, -1441745, 0, 131072, -1441744, 0, 131072, -1441743, 0, 131072, -1441742, 0, 131072, -1441741, 0, 131072, -1441740, 0, 131072, -1441739, 0, 131072, -1441738, 0, 131072, -1441737, 0, 131072, -1441736, 0, 4, -1441735, 0, 196619, -1441734, 0, 196619, -1441733, 0, 196619, -1441732, 0, 196619, -1441731, 0, 196619, -1441730, 0, 196619, -1441729, 0, 196619, -1441728, 0, 196619, -1441727, 0, 196619, -1441726, 0, 196619, -1441725, 0, 196619, -1441724, 0, 196619, -1441723, 0, 196619, -1441722, 0, 196619, -1441721, 0, 196619, -1441720, 0, 196619, -1441719, 0, 196619, -1441718, 0, 196619, -1441717, 0, 196619, -1441716, 0, 196619, -1441715, 0, 196619, -1441714, 0, 196619, -1441713, 0, 131074, -1310727, 0, 131073, -1310726, 0, 196619, -1310725, 0, 196619, -1310724, 0, 196619, -1310723, 0, 196619, -1310722, 0, 196619, -1310721, 0, 196619, -1376256, 0, 196619, -1376255, 0, 196619, -1376254, 0, 196619, -1376253, 0, 196619, -1376252, 0, 196619, -1376251, 0, 196619, -1376250, 0, 196619, -1376249, 0, 196619, -1376248, 0, 196619, -1376247, 0, 196619, -1376246, 0, 196619, -1376245, 0, 196619, -1376244, 0, 196619, -1376243, 0, 196619, -1376242, 0, 196619, -1376241, 0, 196619, -1376240, 0, 196619, -1376239, 0, 196619, -1376238, 0, 196619, -1376237, 0, 196619, -1376236, 0, 196619, -1376235, 0, 196619, -1376234, 0, 196619, -1376233, 0, 196619, -1376232, 0, 196619, -1376231, 0, 196619, -1376230, 0, 196619, -1376229, 0, 196619, -1376228, 0, 131074, -1376210, 0, 131077, -1376200, 0, 65537, -1376199, 0, 131072, -1376198, 0, 131072, -1376197, 0, 131072, -1376196, 0, 131072, -1376195, 0, 131072, -1376194, 0, 131072, -1376193, 0, 4, -1376192, 0, 196619, -1376191, 0, 196619, -1376190, 0, 196619, -1376189, 0, 196619, -1376188, 0, 196619, -1376187, 0, 196619, -1376186, 0, 196619, -1376185, 0, 196619, -1376184, 0, 196619, -1376183, 0, 196619, -1376182, 0, 196619, -1376181, 0, 196619, -1376180, 0, 196619, -1376179, 0, 196619, -1376178, 0, 196619, -1376177, 0, 131074, -1245191, 0, 131073, -1245190, 0, 196619, -1245189, 0, 196619, -1245188, 0, 196619, -1245187, 0, 196619, -1245186, 0, 196619, -1245185, 0, 196619, -1310720, 0, 196619, -1310719, 0, 196619, -1310718, 0, 3, -1310717, 0, 131072, -1310716, 0, 131072, -1310715, 0, 131072, -1310714, 0, 131072, -1310713, 0, 131072, -1310712, 0, 131072, -1310711, 0, 131072, -1310710, 0, 131072, -1310709, 0, 131072, -1310708, 0, 4, -1310707, 0, 196619, -1310706, 0, 196619, -1310705, 0, 196619, -1310704, 0, 196619, -1310703, 0, 196619, -1310702, 0, 196619, -1310701, 0, 196619, -1310700, 0, 196619, -1310699, 0, 196619, -1310698, 0, 196619, -1310697, 0, 196619, -1310696, 0, 196619, -1310695, 0, 196619, -1310694, 0, 196619, -1310693, 0, 196619, -1310692, 0, 131074, -1310657, 0, 65537, -1310656, 0, 131072, -1310655, 0, 131072, -1310654, 0, 131072, -1310653, 0, 131072, -1310652, 0, 131072, -1310651, 0, 131072, -1310650, 0, 131072, -1310649, 0, 131072, -1310648, 0, 131072, -1310647, 0, 131072, -1310646, 0, 131072, -1310645, 0, 131072, -1310644, 0, 131072, -1310643, 0, 131072, -1310642, 0, 131072, -1310641, 0, 65538, -1179655, 0, 131073, -1179654, 0, 196619, -1179653, 0, 196619, -1179652, 0, 196619, -1179651, 0, 196619, -1179650, 0, 196619, -1179649, 0, 196619, -1245184, 0, 3, -1245183, 0, 131072, -1245182, 0, 65538, -1245172, 0, 131073, -1245171, 0, 196619, -1245170, 0, 196619, -1245169, 0, 196619, -1245168, 0, 196619, -1245167, 0, 196619, -1245166, 0, 196619, -1245165, 0, 196619, -1245164, 0, 196619, -1245163, 0, 196619, -1245162, 0, 196619, -1245161, 0, 196619, -1245160, 0, 196619, -1245159, 0, 196619, -1245158, 0, 196619, -1245157, 0, 196619, -1245156, 0, 131074, -1114119, 0, 131073, -1114118, 0, 196619, -1114117, 0, 196619, -1114116, 0, 196619, -1114115, 0, 196619, -1114114, 0, 196619, -1114113, 0, 3, -1179648, 0, 65538, -1179636, 0, 131073, -1179635, 0, 196619, -1179634, 0, 196619, -1179633, 0, 196619, -1179632, 0, 196619, -1179631, 0, 196619, -1179630, 0, 196619, -1179629, 0, 196619, -1179628, 0, 196619, -1179627, 0, 196619, -1179626, 0, 196619, -1179625, 0, 196619, -1179624, 0, 196619, -1179623, 0, 196619, -1179622, 0, 196619, -1179621, 0, 196619, -1179620, 0, 131074, -1048583, 0, 131073, -1048582, 0, 196619, -1048581, 0, 196619, -1048580, 0, 196619, -1048579, 0, 196619, -1048578, 0, 3, -1048577, 0, 65538, -1114100, 0, 131073, -1114099, 0, 196619, -1114098, 0, 196619, -1114097, 0, 196619, -1114096, 0, 196619, -1114095, 0, 196619, -1114094, 0, 196619, -1114093, 0, 196619, -1114092, 0, 196619, -1114091, 0, 196619, -1114090, 0, 196619, -1114089, 0, 196619, -1114088, 0, 196619, -1114087, 0, 196619, -1114086, 0, 196619, -1114085, 0, 196619, -1114084, 0, 131074, -1114071, 0, 1, -1114070, 0, 65536, -1114069, 0, 65536, -1114068, 0, 65536, -1114067, 0, 65536, -1114066, 0, 2, -1114056, 0, 1, -1114055, 0, 65536, -1114054, 0, 65536, -1114053, 0, 65536, -1114052, 0, 65536, -1114051, 0, 65536, -1114050, 0, 65536, -1114049, 0, 65536, -1114048, 0, 65536, -1114047, 0, 65536, -1114046, 0, 65536, -1114045, 0, 65536, -1114044, 0, 65536, -1114043, 0, 65536, -1114042, 0, 65536, -1114041, 0, 65536, -1114040, 0, 65536, -1114039, 0, 65536, -1114038, 0, 65536, -1114037, 0, 65536, -1114036, 0, 65536, -1114035, 0, 65536, -1114034, 0, 65536, -1114033, 0, 2, -983047, 0, 131073, -983046, 0, 196619, -983045, 0, 196619, -983044, 0, 196619, -983043, 0, 196619, -983042, 0, 131074, -1048564, 0, 65537, -1048563, 0, 131072, -1048562, 0, 131072, -1048561, 0, 131072, -1048560, 0, 131072, -1048559, 0, 131072, -1048558, 0, 131072, -1048557, 0, 131072, -1048556, 0, 131072, -1048555, 0, 131072, -1048554, 0, 4, -1048553, 0, 196619, -1048552, 0, 196619, -1048551, 0, 196619, -1048550, 0, 196619, -1048549, 0, 196619, -1048548, 0, 131074, -1048538, 0, 1, -1048537, 0, 65536, -1048536, 0, 65536, -1048535, 0, 65540, -1048534, 0, 196619, -1048533, 0, 196619, -1048532, 0, 196619, -1048531, 0, 196619, -1048530, 0, 65539, -1048529, 0, 65536, -1048528, 0, 65536, -1048527, 0, 65536, -1048526, 0, 65536, -1048525, 0, 65536, -1048524, 0, 65536, -1048523, 0, 65536, -1048522, 0, 65536, -1048521, 0, 65536, -1048520, 0, 65540, -1048519, 0, 196619, -1048518, 0, 196619, -1048517, 0, 196619, -1048516, 0, 196619, -1048515, 0, 196619, -1048514, 0, 196619, -1048513, 0, 196619, -1048512, 0, 196619, -1048511, 0, 196619, -1048510, 0, 196619, -1048509, 0, 196619, -1048508, 0, 196619, -1048507, 0, 196619, -1048506, 0, 196619, -1048505, 0, 196619, -1048504, 0, 196619, -1048503, 0, 196619, -1048502, 0, 196619, -1048501, 0, 196619, -1048500, 0, 196619, -1048499, 0, 196619, -1048498, 0, 196619, -1048497, 0, 131074, -917511, 0, 131073, -917510, 0, 196619, -917509, 0, 196619, -917508, 0, 196619, -917507, 0, 196619, -917506, 0, 131074, -983018, 0, 65537, -983017, 0, 131072, -983016, 0, 131072, -983015, 0, 131072, -983014, 0, 131072, -983013, 0, 131072, -983012, 0, 65538, -983003, 0, 1, -983002, 0, 65540, -983001, 0, 196619, -983000, 0, 196619, -982999, 0, 196619, -982998, 0, 196619, -982997, 0, 196619, -982996, 0, 196619, -982995, 0, 196619, -982994, 0, 196619, -982993, 0, 196619, -982992, 0, 196619, -982991, 0, 196619, -982990, 0, 196619, -982989, 0, 196619, -982988, 0, 196619, -982987, 0, 196619, -982986, 0, 196619, -982985, 0, 196619, -982984, 0, 196619, -982983, 0, 196619, -982982, 0, 196619, -982981, 0, 196619, -982980, 0, 196619, -982979, 0, 196619, -982978, 0, 196619, -982977, 0, 196619, -982976, 0, 196619, -982975, 0, 196619, -982974, 0, 196619, -982973, 0, 196619, -982972, 0, 196619, -982971, 0, 196619, -982970, 0, 196619, -982969, 0, 196619, -982968, 0, 196619, -982967, 0, 196619, -982966, 0, 196619, -982965, 0, 196619, -982964, 0, 196619, -982963, 0, 196619, -982962, 0, 196619, -982961, 0, 131074, -851975, 0, 131073, -851974, 0, 196619, -851973, 0, 196619, -851972, 0, 196619, -851971, 0, 196619, -851970, 0, 131074, -917467, 0, 131073, -917466, 0, 196619, -917465, 0, 196619, -917464, 0, 196619, -917463, 0, 196619, -917462, 0, 196619, -917461, 0, 196619, -917460, 0, 196619, -917459, 0, 196619, -917458, 0, 196619, -917457, 0, 196619, -917456, 0, 196619, -917455, 0, 196619, -917454, 0, 196619, -917453, 0, 196619, -917452, 0, 196619, -917451, 0, 196619, -917450, 0, 196619, -917449, 0, 196619, -917448, 0, 196619, -917447, 0, 196619, -917446, 0, 196619, -917445, 0, 196619, -917444, 0, 196619, -917443, 0, 196619, -917442, 0, 196619, -917441, 0, 196619, -917440, 0, 196619, -917439, 0, 196619, -917438, 0, 196619, -917437, 0, 196619, -917436, 0, 196619, -917435, 0, 196619, -917434, 0, 3, -917433, 0, 131072, -917432, 0, 131072, -917431, 0, 131072, -917430, 0, 131072, -917429, 0, 131072, -917428, 0, 131072, -917427, 0, 131072, -917426, 0, 131072, -917425, 0, 65538, -786439, 0, 131073, -786438, 0, 196619, -786437, 0, 196619, -786436, 0, 196619, -786435, 0, 196619, -786434, 0, 65539, -786433, 0, 65536, -851968, 0, 65536, -851967, 0, 65536, -851966, 0, 65536, -851965, 0, 65536, -851964, 0, 65536, -851963, 0, 2, -851959, 0, 1, -851958, 0, 65536, -851957, 0, 65536, -851956, 0, 65536, -851955, 0, 65536, -851954, 0, 65536, -851953, 0, 65536, -851952, 0, 65536, -851951, 0, 2, -851931, 0, 131073, -851930, 0, 196619, -851929, 0, 196619, -851928, 0, 196619, -851927, 0, 196619, -851926, 0, 196619, -851925, 0, 196619, -851924, 0, 196619, -851923, 0, 196619, -851922, 0, 196619, -851921, 0, 196619, -851920, 0, 196619, -851919, 0, 196619, -851918, 0, 196619, -851917, 0, 196619, -851916, 0, 196619, -851915, 0, 196619, -851914, 0, 196619, -851913, 0, 196619, -851912, 0, 196619, -851911, 0, 196619, -851910, 0, 196619, -851909, 0, 196619, -851908, 0, 196619, -851907, 0, 196619, -851906, 0, 196619, -851905, 0, 196619, -851904, 0, 196619, -851903, 0, 196619, -851902, 0, 196619, -851901, 0, 196619, -851900, 0, 196619, -851899, 0, 196619, -851898, 0, 131074, -720903, 0, 131073, -720902, 0, 196619, -720901, 0, 196619, -720900, 0, 196619, -720899, 0, 196619, -720898, 0, 196619, -720897, 0, 196619, -786432, 0, 196619, -786431, 0, 196619, -786430, 0, 196619, -786429, 0, 196619, -786428, 0, 196619, -786427, 0, 131074, -786423, 0, 131073, -786422, 0, 196619, -786421, 0, 196619, -786420, 0, 196619, -786419, 0, 196619, -786418, 0, 196619, -786417, 0, 196619, -786416, 0, 196619, -786415, 0, 65539, -786414, 0, 65536, -786413, 0, 65536, -786412, 0, 65536, -786411, 0, 65536, -786410, 0, 65536, -786409, 0, 65536, -786408, 0, 65536, -786407, 0, 65536, -786406, 0, 65536, -786405, 0, 65536, -786404, 0, 65536, -786403, 0, 65536, -786402, 0, 65536, -786401, 0, 65536, -786400, 0, 65536, -786399, 0, 65536, -786398, 0, 65536, -786397, 0, 65536, -786396, 0, 65536, -786395, 0, 65540, -786394, 0, 196619, -786393, 0, 196619, -786392, 0, 196619, -786391, 0, 196619, -786390, 0, 196619, -786389, 0, 196619, -786388, 0, 196619, -786387, 0, 196619, -786386, 0, 196619, -786385, 0, 196619, -786384, 0, 196619, -786383, 0, 196619, -786382, 0, 196619, -786381, 0, 196619, -786380, 0, 196619, -786379, 0, 196619, -786378, 0, 196619, -786377, 0, 196619, -786376, 0, 196619, -786375, 0, 196619, -786374, 0, 196619, -786373, 0, 196619, -786372, 0, 196619, -786371, 0, 196619, -786370, 0, 196619, -786369, 0, 196619, -786368, 0, 196619, -786367, 0, 196619, -786366, 0, 196619, -786365, 0, 196619, -786364, 0, 196619, -786363, 0, 196619, -786362, 0, 131074, -655367, 0, 131073, -655366, 0, 196619, -655365, 0, 196619, -655364, 0, 196619, -655363, 0, 196619, -655362, 0, 196619, -655361, 0, 196619, -720896, 0, 196619, -720895, 0, 196619, -720894, 0, 196619, -720893, 0, 196619, -720892, 0, 196619, -720891, 0, 131074, -720887, 0, 131073, -720886, 0, 196619, -720885, 0, 196619, -720884, 0, 196619, -720883, 0, 196619, -720882, 0, 196619, -720881, 0, 196619, -720880, 0, 196619, -720879, 0, 196619, -720878, 0, 196619, -720877, 0, 196619, -720876, 0, 196619, -720875, 0, 196619, -720874, 0, 196619, -720873, 0, 196619, -720872, 0, 196619, -720871, 0, 196619, -720870, 0, 196619, -720869, 0, 196619, -720868, 0, 196619, -720867, 0, 3, -720866, 0, 131072, -720865, 0, 131072, -720864, 0, 131072, -720863, 0, 131072, -720862, 0, 131072, -720861, 0, 131072, -720860, 0, 131072, -720859, 0, 131072, -720858, 0, 131072, -720857, 0, 131072, -720856, 0, 131072, -720855, 0, 131072, -720854, 0, 131072, -720853, 0, 131072, -720852, 0, 131072, -720851, 0, 131072, -720850, 0, 131072, -720849, 0, 131072, -720848, 0, 131072, -720847, 0, 131072, -720846, 0, 131072, -720845, 0, 131072, -720844, 0, 131072, -720843, 0, 131072, -720842, 0, 131072, -720841, 0, 131072, -720840, 0, 131072, -720839, 0, 131072, -720838, 0, 131072, -720837, 0, 131072, -720836, 0, 131072, -720835, 0, 131072, -720834, 0, 131072, -720833, 0, 131072, -720832, 0, 131072, -720831, 0, 131072, -720830, 0, 131072, -720829, 0, 131072, -720828, 0, 131072, -720827, 0, 131072, -720826, 0, 65538, -589831, 0, 131073, -589830, 0, 196619, -589829, 0, 196619, -589828, 0, 196619, -589827, 0, 196619, -589826, 0, 196619, -589825, 0, 196619, -655360, 0, 196619, -655359, 0, 196619, -655358, 0, 196619, -655357, 0, 196619, -655356, 0, 196619, -655355, 0, 131074, -655351, 0, 131073, -655350, 0, 196619, -655349, 0, 196619, -655348, 0, 196619, -655347, 0, 196619, -655346, 0, 196619, -655345, 0, 196619, -655344, 0, 196619, -655343, 0, 196619, -655342, 0, 196619, -655341, 0, 196619, -655340, 0, 196619, -655339, 0, 196619, -655338, 0, 196619, -655337, 0, 196619, -655336, 0, 196619, -655335, 0, 196619, -655334, 0, 196619, -655333, 0, 196619, -655332, 0, 196619, -655331, 0, 131074, -524295, 0, 131073, -524294, 0, 196619, -524293, 0, 196619, -524292, 0, 196619, -524291, 0, 196619, -524290, 0, 196619, -524289, 0, 196619, -589824, 0, 196619, -589823, 0, 196619, -589822, 0, 196619, -589821, 0, 196619, -589820, 0, 196619, -589819, 0, 131074, -589815, 0, 131073, -589814, 0, 196619, -589813, 0, 196619, -589812, 0, 196619, -589811, 0, 196619, -589810, 0, 196619, -589809, 0, 196619, -589808, 0, 196619, -589807, 0, 196619, -589806, 0, 196619, -589805, 0, 196619, -589804, 0, 196619, -589803, 0, 196619, -589802, 0, 196619, -589801, 0, 196619, -589800, 0, 196619, -589799, 0, 196619, -589798, 0, 196619, -589797, 0, 196619, -589796, 0, 196619, -589795, 0, 131074, -458759, 0, 131073, -458758, 0, 196619, -458757, 0, 196619, -458756, 0, 196619, -458755, 0, 196619, -458754, 0, 196619, -458753, 0, 196619, -524288, 0, 196619, -524287, 0, 196619, -524286, 0, 196619, -524285, 0, 3, -524284, 0, 131072, -524283, 0, 65538, -524279, 0, 65537, -524278, 0, 131072, -524277, 0, 4, -524276, 0, 196619, -524275, 0, 196619, -524274, 0, 196619, -524273, 0, 196619, -524272, 0, 196619, -524271, 0, 196619, -524270, 0, 196619, -524269, 0, 196619, -524268, 0, 196619, -524267, 0, 196619, -524266, 0, 196619, -524265, 0, 196619, -524264, 0, 196619, -524263, 0, 196619, -524262, 0, 196619, -524261, 0, 196619, -524260, 0, 196619, -524259, 0, 131074, -393223, 0, 131073, -393222, 0, 196619, -393221, 0, 196619, -393220, 0, 196619, -393219, 0, 196619, -393218, 0, 196619, -393217, 0, 196619, -458752, 0, 196619, -458751, 0, 3, -458750, 0, 131072, -458749, 0, 65538, -458741, 0, 65537, -458740, 0, 131072, -458739, 0, 4, -458738, 0, 196619, -458737, 0, 196619, -458736, 0, 196619, -458735, 0, 196619, -458734, 0, 196619, -458733, 0, 196619, -458732, 0, 196619, -458731, 0, 196619, -458730, 0, 196619, -458729, 0, 196619, -458728, 0, 196619, -458727, 0, 196619, -458726, 0, 196619, -458725, 0, 196619, -458724, 0, 196619, -458723, 0, 131074, -327687, 0, 131073, -327686, 0, 196619, -327685, 0, 196619, -327684, 0, 196619, -327683, 0, 196619, -327682, 0, 196619, -327681, 0, 3, -393216, 0, 131072, -393215, 0, 65538, -393203, 0, 65537, -393202, 0, 131072, -393201, 0, 4, -393200, 0, 196619, -393199, 0, 196619, -393198, 0, 196619, -393197, 0, 196619, -393196, 0, 196619, -393195, 0, 196619, -393194, 0, 196619, -393193, 0, 196619, -393192, 0, 196619, -393191, 0, 196619, -393190, 0, 196619, -393189, 0, 196619, -393188, 0, 196619, -393187, 0, 131074, -262151, 0, 131073, -262150, 0, 196619, -262149, 0, 196619, -262148, 0, 196619, -262147, 0, 196619, -262146, 0, 3, -262145, 0, 65538, -327674, 0, 196608, -327673, 0, 131076, -327672, 0, 196610, -327665, 0, 65537, -327664, 0, 131072, -327663, 0, 4, -327662, 0, 196619, -327661, 0, 196619, -327660, 0, 196619, -327659, 0, 196619, -327658, 0, 196619, -327657, 0, 196619, -327656, 0, 196619, -327655, 0, 196619, -327654, 0, 196619, -327653, 0, 196619, -327652, 0, 196619, -327651, 0, 131074, -196615, 0, 131073, -196614, 0, 196619, -196613, 0, 196619, -196612, 0, 196619, -196611, 0, 196619, -196610, 0, 131074, -262137, 0, 131077, -262127, 0, 131073, -262126, 0, 196619, -262125, 0, 196619, -262124, 0, 196619, -262123, 0, 196619, -262122, 0, 196619, -262121, 0, 196619, -262120, 0, 196619, -262119, 0, 196619, -262118, 0, 196619, -262117, 0, 196619, -262116, 0, 196619, -262115, 0, 131074, -131079, 0, 131073, -131078, 0, 196619, -131077, 0, 196619, -131076, 0, 196619, -131075, 0, 196619, -131074, 0, 131074, -196591, 0, 131073, -196590, 0, 196619, -196589, 0, 196619, -196588, 0, 196619, -196587, 0, 196619, -196586, 0, 196619, -196585, 0, 196619, -196584, 0, 196619, -196583, 0, 196619, -196582, 0, 196619, -196581, 0, 196619, -196580, 0, 196619, -196579, 0, 131074, -65543, 0, 131073, -65542, 0, 196619, -65541, 0, 196619, -65540, 0, 196619, -65539, 0, 196619, -65538, 0, 131074, -131072, 0, 196608, -131071, 0, 196609, -131070, 0, 196609, -131069, 0, 196609, -131068, 0, 196609, -131067, 0, 196609, -131066, 0, 196609, -131065, 0, 196609, -131064, 0, 196609, -131063, 0, 196609, -131062, 0, 196609, -131061, 0, 196609, -131060, 0, 196609, -131059, 0, 196609, -131058, 0, 196609, -131057, 0, 196609, -131056, 0, 196609, -131055, 0, 196614, -131054, 0, 196619, -131053, 0, 196619, -131052, 0, 196619, -131051, 0, 196619, -131050, 0, 196619, -131049, 0, 196619, -131048, 0, 196619, -131047, 0, 196619, -131046, 0, 196619, -131045, 0, 196619, -131044, 0, 196619, -131043, 0, 131074, -7, 0, 131073, -6, 0, 196619, -5, 0, 196619, -4, 0, 196619, -3, 0, 196619, -2, 0, 131074, -65519, 0, 131073, -65518, 0, 196619, -65517, 0, 196619, -65516, 0, 196619, -65515, 0, 196619, -65514, 0, 196619, -65513, 0, 196619, -65512, 0, 196619, -65511, 0, 196619, -65510, 0, 196619, -65509, 0, 196619, -65508, 0, 196619, -65507, 0, 131074, 65529, 0, 131073, 65530, 0, 196619, 65531, 0, 196619, 65532, 0, 196619, 65533, 0, 196619, 65534, 0, 131074, 17, 0, 131073, 18, 0, 196619, 19, 0, 196619, 20, 0, 196619, 21, 0, 196619, 22, 0, 196619, 23, 0, 196619, 24, 0, 196619, 25, 0, 196619, 26, 0, 196619, 27, 0, 196619, 28, 0, 196619, 29, 0, 131074, 131065, 0, 131073, 131066, 0, 196619, 131067, 0, 196619, 131068, 0, 196619, 131069, 0, 196619, 131070, 0, 131074, 65553, 0, 131073, 65554, 0, 196619, 65555, 0, 196619, 65556, 0, 196619, 65557, 0, 196619, 65558, 0, 196619, 65559, 0, 196619, 65560, 0, 196619, 65561, 0, 196619, 65562, 0, 196619, 65563, 0, 196619, 65564, 0, 196619, 65565, 0, 131074, 196601, 0, 131073, 196602, 0, 196619, 196603, 0, 196619, 196604, 0, 196619, 196605, 0, 196619, 196606, 0, 131074, 131073, 0, 196608, 131074, 0, 196609, 131075, 0, 196610, 131089, 0, 131073, 131090, 0, 196619, 131091, 0, 196619, 131092, 0, 196619, 131093, 0, 196619, 131094, 0, 196619, 131095, 0, 196619, 131096, 0, 196619, 131097, 0, 196619, 131098, 0, 196619, 131099, 0, 196619, 131100, 0, 196619, 131101, 0, 131074, 262137, 0, 131073, 262138, 0, 196619, 262139, 0, 196619, 262140, 0, 196619, 262141, 0, 196619, 262142, 0, 131074, 196616, 0, 196608, 196617, 0, 196609, 196618, 0, 196609, 196619, 0, 196609, 196620, 0, 196610, 196625, 0, 131073, 196626, 0, 196619, 196627, 0, 196619, 196628, 0, 196619, 196629, 0, 196619, 196630, 0, 196619, 196631, 0, 196619, 196632, 0, 196619, 196633, 0, 196619, 196634, 0, 196619, 196635, 0, 196619, 196636, 0, 196619, 196637, 0, 131074, 327673, 0, 131073, 327674, 0, 3, 327675, 0, 131072, 327676, 0, 131072, 327677, 0, 131072, 327678, 0, 65538, 262161, 0, 131073, 262162, 0, 196619, 262163, 0, 196619, 262164, 0, 196619, 262165, 0, 196619, 262166, 0, 196619, 262167, 0, 196619, 262168, 0, 196619, 262169, 0, 196619, 262170, 0, 196619, 262171, 0, 196619, 262172, 0, 196619, 262173, 0, 131074, 393209, 0, 131073, 393210, 0, 131074, 327697, 0, 131073, 327698, 0, 196619, 327699, 0, 196619, 327700, 0, 196619, 327701, 0, 196619, 327702, 0, 196619, 327703, 0, 196619, 327704, 0, 196619, 327705, 0, 196619, 327706, 0, 196619, 327707, 0, 196619, 327708, 0, 196619, 327709, 0, 131074, 458745, 0, 131073, 458746, 0, 131074, 393217, 0, 5, 393226, 0, 5, 393233, 0, 131073, 393234, 0, 196619, 393235, 0, 196619, 393236, 0, 196619, 393237, 0, 196619, 393238, 0, 196619, 393239, 0, 196619, 393240, 0, 196619, 393241, 0, 196619, 393242, 0, 196619, 393243, 0, 196619, 393244, 0, 196619, 393245, 0, 131074, 524281, 0, 131073, 524282, 0, 65539, 524283, 0, 65536, 524284, 0, 65536, 524285, 0, 65536, 524286, 0, 65536, 524287, 0, 65536, 458752, 0, 65536, 458753, 0, 131082, 458754, 0, 65536, 458755, 0, 65536, 458756, 0, 65536, 458757, 0, 65536, 458758, 0, 65536, 458759, 0, 65536, 458760, 0, 65536, 458761, 0, 65536, 458762, 0, 131082, 458763, 0, 65536, 458764, 0, 65536, 458765, 0, 65536, 458766, 0, 65536, 458767, 0, 65536, 458768, 0, 65536, 458769, 0, 65540, 458770, 0, 196619, 458771, 0, 196619, 458772, 0, 196619, 458773, 0, 196619, 458774, 0, 196619, 458775, 0, 196619, 458776, 0, 196619, 458777, 0, 196619, 458778, 0, 196619, 458779, 0, 196619, 458780, 0, 196619, 458781, 0, 131074, 589817, 0, 131073, 589818, 0, 196619, 589819, 0, 196619, 589820, 0, 196619, 589821, 0, 196619, 589822, 0, 196619, 589823, 0, 196619, 524288, 0, 196619, 524289, 0, 196619, 524290, 0, 196619, 524291, 0, 196619, 524292, 0, 196619, 524293, 0, 196619, 524294, 0, 196619, 524295, 0, 196619, 524296, 0, 196619, 524297, 0, 196619, 524298, 0, 196619, 524299, 0, 196619, 524300, 0, 196619, 524301, 0, 196619, 524302, 0, 196619, 524303, 0, 196619, 524304, 0, 196619, 524305, 0, 196619, 524306, 0, 196619, 524307, 0, 196619, 524308, 0, 196619, 524309, 0, 196619, 524310, 0, 196619, 524311, 0, 196619, 524312, 0, 196619, 524313, 0, 196619, 524314, 0, 196619, 524315, 0, 196619, 524316, 0, 196619, 524317, 0, 131074, 655353, 0, 131073, 655354, 0, 196619, 655355, 0, 196619, 655356, 0, 196619, 655357, 0, 196619, 655358, 0, 196619, 655359, 0, 196619, 589824, 0, 196619, 589825, 0, 196619, 589826, 0, 196619, 589827, 0, 196619, 589828, 0, 196619, 589829, 0, 196619, 589830, 0, 196619, 589831, 0, 196619, 589832, 0, 196619, 589833, 0, 196619, 589834, 0, 196619, 589835, 0, 196619, 589836, 0, 196619, 589837, 0, 196619, 589838, 0, 196619, 589839, 0, 196619, 589840, 0, 196619, 589841, 0, 196619, 589842, 0, 196619, 589843, 0, 196619, 589844, 0, 196619, 589845, 0, 196619, 589846, 0, 196619, 589847, 0, 196619, 589848, 0, 196619, 589849, 0, 196619, 589850, 0, 196619, 589851, 0, 196619, 589852, 0, 196619, 589853, 0, 131074, 720889, 0, 65537, 720890, 0, 131072, 720891, 0, 131072, 720892, 0, 131072, 720893, 0, 131072, 720894, 0, 131072, 720895, 0, 131072, 655360, 0, 131072, 655361, 0, 131072, 655362, 0, 131072, 655363, 0, 131072, 655364, 0, 131072, 655365, 0, 131072, 655366, 0, 131072, 655367, 0, 131072, 655368, 0, 131072, 655369, 0, 131072, 655370, 0, 131072, 655371, 0, 131072, 655372, 0, 131072, 655373, 0, 131072, 655374, 0, 131072, 655375, 0, 131072, 655376, 0, 131072, 655377, 0, 131072, 655378, 0, 131072, 655379, 0, 131072, 655380, 0, 131072, 655381, 0, 131072, 655382, 0, 131072, 655383, 0, 131072, 655384, 0, 131072, 655385, 0, 131072, 655386, 0, 131072, 655387, 0, 131072, 655388, 0, 131072, 655389, 0, 65538 )

[node name="Node" type="Node" parent="." index="4"]

[node name="LeftBottom" parent="Node" index="0" instance=ExtResource( 5 )]

position = Vector2( -258.652, 563 )

[node name="RightUpper" parent="Node" index="1" instance=ExtResource( 6 )]

position = Vector2( 1626.84, -1356.55 )

[node name="Spikes" type="Node" parent="." index="5"]

editor/display_folded = true

[node name="SpikeCeiling" parent="Spikes" index="0" instance=ExtResource( 7 )]

position = Vector2( 544, 288 )

[node name="SpikeCeiling3" parent="Spikes" index="1" instance=ExtResource( 7 )]

position = Vector2( 672, 288 )

[node name="SpikeCeiling2" parent="Spikes" index="2" instance=ExtResource( 7 )]

position = Vector2( 608, 288 )

[node name="SpikeCeiling7" parent="Spikes" index="3" instance=ExtResource( 7 )]

position = Vector2( 480, -160 )

[node name="SpikeCeiling4" parent="Spikes" index="4" instance=ExtResource( 7 )]

position = Vector2( 736, 288 )

[node name="SpikeCeiling5" parent="Spikes" index="5" instance=ExtResource( 7 )]

position = Vector2( 800, 288 )

[node name="SpikeFloor" parent="Spikes" index="6" instance=ExtResource( 8 )]

position = Vector2( 672, 160 )

[node name="SpikeFloor2" parent="Spikes" index="7" instance=ExtResource( 8 )]

position = Vector2( 672, 352 )

[node name="SpikeFloor3" parent="Spikes" index="8" instance=ExtResource( 8 )]

position = Vector2( 478, -160 )

[node name="SpikeLWall" parent="Spikes" index="9" instance=ExtResource( 9 )]

position = Vector2( 288, 160 )

[node name="SpikeLWall2" parent="Spikes" index="10" instance=ExtResource( 9 )]

position = Vector2( -32, 160 )

[node name="SpikeLWall3" parent="Spikes" index="11" instance=ExtResource( 9 )]

position = Vector2( 736, 416 )

[node name="SpikeLWall4" parent="Spikes" index="12" instance=ExtResource( 9 )]

position = Vector2( 416, -608 )

[node name="SpikeLWall5" parent="Spikes" index="13" instance=ExtResource( 9 )]

position = Vector2( 416, -672 )

[node name="SpikeRWall" parent="Spikes" index="14" instance=ExtResource( 10 )]

position = Vector2( 32, 160 )

[node name="SpikeRWall2" parent="Spikes" index="15" instance=ExtResource( 10 )]

position = Vector2( 608, 416 )

[node name="SpikeRWall10" parent="Spikes" index="16" instance=ExtResource( 10 )]

position = Vector2( 480, 224 )

[node name="SpikeRWall3" parent="Spikes" index="17" instance=ExtResource( 10 )]

position = Vector2( 544, -480 )

[node name="SpikeRWall4" parent="Spikes" index="18" instance=ExtResource( 10 )]

position = Vector2( 544, -544 )

[node name="SpikeRWall5" parent="Spikes" index="19" instance=ExtResource( 10 )]

position = Vector2( 544, -800 )

[node name="Transition" parent="." index="6" instance=ExtResource( 11 )]

visible = false
position = Vector2( 1554.26, -833.323 )
scale = Vector2( 1, 2.32673 )
world_scene = "res://levels/Level01/Level1-2.tscn"

[connection signal="instanced" from="Start" to="HUD" method="_on_Start_instanced"]


