[gd_scene load_steps=4 format=2]

[ext_resource path="res://objects/Spikes/SpikeCeiling.gd" type="Script" id=1]
[ext_resource path="res://actors/player/Attacks/SpikeTileSet.png" type="Texture" id=2]

[sub_resource type="RectangleShape2D" id=1]

custom_solver_bias = 0.0
extents = Vector2( 30, 5 )

[node name="SpikeCeiling" type="Area2D"]

input_pickable = true
gravity_vec = Vector2( 0, 1 )
gravity = 98.0
linear_damp = 0.1
angular_damp = 1.0
collision_layer = 4
collision_mask = 6
audio_bus_override = false
audio_bus_name = "Master"
script = ExtResource( 1 )
_sections_unfolded = [ "Collision" ]

[node name="Sprite" type="Sprite" parent="." index="0"]

texture = ExtResource( 2 )
vframes = 2
hframes = 2
frame = 3
_sections_unfolded = [ "Animation", "Offset", "Transform" ]

[node name="CollisionShape2D" type="CollisionShape2D" parent="." index="1"]

position = Vector2( 0, -25 )
shape = SubResource( 1 )
_sections_unfolded = [ "Transform" ]

[connection signal="body_entered" from="." to="." method="_on_SpikeCeiling_body_entered"]


