[gd_scene load_steps=5 format=2]

[ext_resource path="res://tiles/TimeSpikeFloor.gd" type="Script" id=1]
[ext_resource path="res://objects/Spikes/TimeSpikenewnewNEW.png" type="Texture" id=2]

[sub_resource type="Animation" id=1]

resource_name = "Rhythm"
length = 2.6
loop = true
step = 0.1
tracks/0/type = "value"
tracks/0/path = NodePath("TimeSpike:frame")
tracks/0/interp = 1
tracks/0/loop_wrap = true
tracks/0/imported = false
tracks/0/enabled = true
tracks/0/keys = {
"times": PoolRealArray( 0, 0.1, 0.2 ),
"transitions": PoolRealArray( 1, 1, 1 ),
"update": 1,
"values": [ 2, 1, 0 ]
}
tracks/1/type = "value"
tracks/1/path = NodePath("TimeSpike:visible")
tracks/1/interp = 1
tracks/1/loop_wrap = true
tracks/1/imported = false
tracks/1/enabled = true
tracks/1/keys = {
"times": PoolRealArray( 0, 0.1, 0.2, 1.4 ),
"transitions": PoolRealArray( 1, 1, 1, 1 ),
"update": 1,
"values": [ true, true, false, true ]
}
tracks/2/type = "value"
tracks/2/path = NodePath("CollisionShape2D:disabled")
tracks/2/interp = 1
tracks/2/loop_wrap = true
tracks/2/imported = false
tracks/2/enabled = true
tracks/2/keys = {
"times": PoolRealArray( 0, 0.2 ),
"transitions": PoolRealArray( 1, 1 ),
"update": 1,
"values": [ false, true ]
}

[sub_resource type="RectangleShape2D" id=2]

custom_solver_bias = 0.0
extents = Vector2( 32.0866, 6.14497 )

[node name="TimeSpikeFloor" type="Area2D"]

input_pickable = true
gravity_vec = Vector2( 0, 1 )
gravity = 98.0
linear_damp = 0.1
angular_damp = 1.0
collision_layer = 4
collision_mask = 2
audio_bus_override = false
audio_bus_name = "Master"
script = ExtResource( 1 )
_sections_unfolded = [ "Collision", "Transform" ]

[node name="AnimationPlayer" type="AnimationPlayer" parent="." index="0"]

root_node = NodePath("..")
autoplay = "Rhythm"
playback_process_mode = 1
playback_default_blend_time = 0.0
playback_speed = 1.0
anims/Rhythm = SubResource( 1 )
blend_times = [  ]

[node name="TimeSpike" type="Sprite" parent="." index="1"]

visible = false
texture = ExtResource( 2 )
vframes = 2
hframes = 2
_sections_unfolded = [ "Animation", "Offset", "Transform", "Visibility" ]

[node name="CollisionShape2D" type="CollisionShape2D" parent="." index="2"]

position = Vector2( 0, 26 )
shape = SubResource( 2 )
disabled = true
_sections_unfolded = [ "Transform" ]

[connection signal="body_entered" from="." to="." method="_on_TimeSpikeFloor_body_entered"]


